{
  "headline": [
    {
      "category": "BOLA",
      "head": "Gara-Gara Santiago Bernabeu, EL Real Batal Datangkan Cristiano Ronaldo?",
      "desc": "SPANYOL - Presiden Real Madrid, Ramon Calderon, agak ragu mantan timnya belanja jorjoran pada bursa transfer musim panas 2021",
      "date": "Rabu, 30 Maret 2020"
    },
    {
      "category": "BOLA",
      "head": "Pangeran Biru Ingin Terus Ikuti Piala Menpora",
      "desc": null,
      "date": "Rabu, 30 Maret 2020"
    },
    {
      "category": "SPORTAINMENT",
      "head": "Bambang Pamungkas, Legenda Sepanjang Masa Persija dan Timnas Indonesia",
      "desc": null,
      "date": "Rabu, 30 Maret 2020"
    },
    {
      "category": "VIDEO",
      "head": "Phoenix Suns Pecundangi Hornets",
      "desc": null,
      "date": "Rabu, 30 Maret 2020"
    },
    {
      "category": "BALAP",
      "head": "Jelang Seri Kedua MotoGP 2021: Rossi dan Morbidelli Sibuk",
      "desc": null,
      "date": "Rabu, 30 Maret 2020"
    },
    {
      "category": "PHOTO",
      "head": "Ketenaran Pevoli Cantik Sabina Altynbekova Sempat Bikin Khawatir",
      "desc": null,
      "date": "Rabu, 30 Maret 2020"
    }
  ]
}
